# Blender v2.68 (sub 0) OBJ File: ''
# www.blender.org
mtllib 1dollar.mtl
o 20_Cent_Mesh
v 0.105380 -0.973805 0.224941
v -0.094617 -0.974910 0.224939
v 0.105520 -0.998966 0.030528
v -0.094477 -1.000071 0.030526
v 0.105448 -0.985716 -0.165058
v -0.094549 -0.986821 -0.165060
v -0.094830 -0.935669 -0.354302
v 0.105167 -0.934564 -0.354301
v 0.104687 -0.847477 -0.529928
v -0.095310 -0.848581 -0.529930
v 0.104027 -0.727799 -0.685191
v -0.095970 -0.728904 -0.685192
v 0.103212 -0.580132 -0.814121
v -0.096785 -0.581237 -0.814123
v 0.102273 -0.410150 -0.911766
v -0.097724 -0.411255 -0.911767
v -0.098749 -0.225489 -0.974373
v 0.101248 -0.224384 -0.974372
v 0.100174 -0.029974 -0.999533
v -0.099823 -0.031079 -0.999535
v 0.099093 0.165609 -0.986283
v -0.100904 0.164504 -0.986284
v 0.098047 0.354849 -0.935131
v -0.101950 0.353744 -0.935132
v -0.102921 0.529368 -0.848043
v 0.097076 0.530473 -0.848041
v -0.103779 0.684628 -0.728364
v 0.096218 0.685733 -0.728362
v -0.104492 0.813557 -0.580694
v 0.095505 0.814662 -0.580693
v 0.094964 0.912305 -0.410708
v -0.105033 0.911200 -0.410709
v 0.094617 0.974910 -0.224939
v -0.105380 0.973805 -0.224940
v -0.105520 0.998966 -0.030527
v 0.094477 1.000071 -0.030526
v 0.094549 0.986821 0.165060
v -0.105448 0.985716 0.165059
v 0.094830 0.935669 0.354303
v -0.105167 0.934564 0.354302
v 0.095310 0.848581 0.529930
v -0.104687 0.847476 0.529929
v 0.095970 0.728904 0.685193
v -0.104027 0.727799 0.685191
v -0.103212 0.580132 0.814122
v 0.096785 0.581237 0.814123
v -0.102273 0.410149 0.911766
v 0.097724 0.411254 0.911768
v 0.098749 0.225488 0.974374
v -0.101248 0.224383 0.974372
v -0.100174 0.029973 0.999533
v 0.099823 0.031078 0.999535
v -0.099093 -0.165610 0.986283
v 0.100904 -0.164505 0.986284
v -0.098047 -0.354850 0.935130
v 0.101950 -0.353745 0.935131
v -0.097076 -0.530474 0.848041
v 0.102921 -0.529370 0.848042
v -0.096218 -0.685734 0.728362
v 0.103779 -0.684629 0.728363
v 0.104492 -0.813558 0.580693
v -0.094964 -0.912306 0.410706
v -0.095505 -0.814663 0.580692
v 0.105033 -0.911201 0.410708
vt 0.499479 0.669717
vt 0.449238 0.669562
vt 0.499627 0.621418
vt 0.449386 0.621263
vt 0.499767 0.575922
vt 0.449526 0.575767
vt 0.449652 0.534822
vt 0.499893 0.534976
vt 0.500000 0.500155
vt 0.397586 0.500153
vt 0.447827 0.500000
vt 0.397711 0.541099
vt 0.447952 0.540946
vt 0.397849 0.586595
vt 0.448090 0.586442
vt 0.397997 0.634893
vt 0.448238 0.634740
vt 0.448387 0.683985
vt 0.398146 0.684138
vt 0.398293 0.732437
vt 0.448534 0.732284
vt 0.398432 0.777933
vt 0.448673 0.777780
vt 0.398557 0.818879
vt 0.347345 0.500000
vt 0.397586 0.500154
vt 0.397447 0.545650
vt 0.347206 0.545496
vt 0.397299 0.593949
vt 0.347058 0.593795
vt 0.397148 0.643193
vt 0.346907 0.643040
vt 0.346760 0.691338
vt 0.397001 0.691492
vt 0.346621 0.736835
vt 0.396861 0.736988
vt 0.396736 0.777934
vt 0.000725 0.500000
vt 0.050966 0.500154
vt 0.000585 0.545496
vt 0.050826 0.545650
vt 0.000438 0.593795
vt 0.050679 0.593949
vt 0.000287 0.643040
vt 0.050528 0.643194
vt 0.000139 0.691338
vt 0.050380 0.691492
vt 0.050241 0.736988
vt 0.082715 0.564813
vt 0.050966 0.525875
vt 0.082700 0.500000
vt 0.345741 0.777940
vt 0.295500 0.777780
vt 0.345886 0.732444
vt 0.295645 0.732284
vt 0.295799 0.683985
vt 0.346040 0.684145
vt 0.295956 0.634740
vt 0.346197 0.634900
vt 0.296109 0.586442
vt 0.346350 0.586602
vt 0.296254 0.540946
vt 0.346495 0.541105
vt 0.296384 0.500000
vt 0.499039 0.812756
vt 0.448798 0.812601
vt 0.499179 0.767259
vt 0.449086 0.718806
vt 0.448938 0.767105
vt 0.528439 0.368385
vt 0.500000 0.274585
vt 0.500007 0.225340
vt 0.449759 0.500000
vt 0.631615 0.028439
vt 0.774659 0.000007
vt 0.822886 0.490400
vt 0.725341 0.499993
vt 0.555792 0.409335
vt 0.448798 0.818726
vt 0.346495 0.777780
vt 0.225341 0.000007
vt 0.274586 0.000000
vt 0.322886 0.009600
vt 0.000000 0.736834
vt 0.500000 0.525879
vt 0.531731 0.500000
vt 0.531754 0.564813
vt 0.498913 0.853701
vt 0.909335 0.444209
vt 0.868385 0.471561
vt 0.499327 0.718961
vt 0.131549 0.028474
vt 0.177043 0.009622
vt 0.055791 0.090665
vt 0.409392 0.444161
vt 0.000000 0.225415
vt 0.471526 0.131550
vt 1.000000 0.225414
vt 0.509622 0.177043
vt 0.528474 0.131550
vt 0.499993 0.225341
vt 0.677114 0.009600
vt 0.725415 0.000000
vt 0.322957 0.490378
vt 0.368451 0.471526
vt 0.274659 0.499993
vt 0.009622 0.322957
vt 0.055839 0.409392
vt 0.028474 0.368451
vt 0.028438 0.131615
vt 0.009600 0.177114
vt 0.555839 0.090608
vt 0.444209 0.409335
vt 0.471561 0.368385
vt 0.090608 0.055839
vt 0.490400 0.322886
vt 0.500000 0.274586
vt 0.909392 0.055839
vt 0.944209 0.090665
vt 0.990400 0.177114
vt 0.177115 0.490400
vt 0.131615 0.471562
vt 0.225415 0.500000
vt 0.971527 0.368450
vt 0.000007 0.274660
vt 0.368385 0.028439
vt 0.090665 0.444209
vt 0.590665 0.055792
vt 0.677043 0.490378
vt 0.409335 0.055792
vt 0.444161 0.090608
vt 0.868451 0.028474
vt 0.971562 0.131615
vt 0.822957 0.009622
vt 0.774585 0.500000
vt 0.509600 0.322885
vt 0.999993 0.274659
vt 0.990378 0.322957
vt 0.944161 0.409392
vt 0.631549 0.471527
vt 0.590608 0.444161
vt 0.490379 0.177043
usemtl Material.001
s off
f 1/1 2/2 3/3
f 3/3 4/4 5/5
f 5/5 6/6 7/7
f 8/8 7/7 9/9
f 9/10 10/11 11/12
f 11/12 12/13 13/14
f 13/14 14/15 15/16
f 15/16 16/17 17/18
f 18/19 17/18 19/20
f 19/20 20/21 21/22
f 21/22 22/23 23/24
f 23/25 24/26 25/27
f 26/28 25/27 27/29
f 28/30 27/29 29/31
f 30/32 29/31 31/33
f 31/33 32/34 33/35
f 33/35 34/36 35/37
f 36/38 35/39 37/40
f 37/40 38/41 39/42
f 39/42 40/43 41/44
f 41/44 42/45 43/46
f 43/46 44/47 45/48
f 46/49 45/50 47/51
f 48/52 47/53 49/54
f 49/54 50/55 51/56
f 52/57 51/56 53/58
f 54/59 53/58 55/60
f 56/61 55/60 57/62
f 58/63 57/62 59/64
f 60/65 59/66 61/67
f 2/2 1/1 62/68
f 61/67 63/69 62/68
f 42/45 44/47 43/46
f 56/70 60/71 61/72
f 2/2 4/4 3/3
f 4/4 6/6 5/5
f 8/8 5/5 7/7
f 7/7 10/73 9/9
f 10/11 12/13 11/12
f 8/74 13/75 56/70
f 14/15 16/17 15/16
f 18/19 15/16 17/18
f 41/76 46/77 54/78
f 20/21 22/23 21/22
f 22/23 24/79 23/24
f 26/28 23/25 25/27
f 28/30 26/28 27/29
f 30/32 28/30 29/31
f 29/31 32/34 31/33
f 32/34 34/36 33/35
f 36/80 33/35 35/37
f 35/39 38/41 37/40
f 38/41 40/43 39/42
f 40/43 42/45 41/44
f 34/81 32/82 29/83
f 46/84 43/46 45/48
f 48/85 46/86 47/87
f 47/53 50/55 49/54
f 52/57 49/54 51/56
f 54/59 52/57 53/58
f 56/61 54/59 55/60
f 58/63 56/61 57/62
f 60/65 58/88 59/66
f 37/89 39/90 41/76
f 1/1 64/91 62/68
f 64/91 61/67 62/68
f 12/13 14/15 13/14
f 38/92 35/93 42/94
f 35/93 34/81 42/94
f 7/95 47/96 34/81
f 34/81 47/96 42/94
f 29/83 22/97 34/81
f 28/98 56/70 13/75
f 64/99 1/100 61/72
f 17/101 7/95 34/81
f 22/97 17/101 34/81
f 8/74 9/102 11/103
f 4/104 7/95 6/105
f 2/106 7/95 4/104
f 51/107 55/108 53/109
f 44/110 47/96 45/111
f 1/100 3/112 8/74
f 10/113 7/95 12/114
f 42/94 40/115 38/92
f 14/116 12/114 16/117
f 19/118 21/119 26/120
f 51/107 47/96 7/95
f 63/121 59/122 62/123
f 59/66 63/69 61/67
f 33/124 37/89 41/76
f 50/125 47/96 51/107
f 55/108 51/107 2/106
f 29/83 27/126 22/97
f 2/106 62/123 55/108
f 62/123 57/127 55/108
f 2/106 51/107 7/95
f 17/18 20/21 19/20
f 61/72 1/100 8/74
f 3/112 5/128 8/74
f 46/77 48/129 54/78
f 25/130 24/131 22/97
f 11/103 13/75 8/74
f 8/74 56/70 61/72
f 56/70 28/98 33/124
f 18/132 19/118 13/75
f 19/118 26/120 13/75
f 21/119 23/133 26/120
f 13/75 15/134 18/132
f 46/77 41/76 43/135
f 58/136 60/71 56/70
f 16/117 12/114 17/101
f 28/98 30/137 31/138
f 28/98 31/138 33/124
f 37/89 33/124 36/139
f 41/76 56/70 33/124
f 54/78 49/140 52/141
f 26/120 28/98 13/75
f 12/114 7/95 17/101
f 27/126 25/130 22/97
f 56/70 41/76 54/78
f 59/122 57/127 62/123
f 48/129 49/140 54/78
f 47/96 44/110 42/94
f 22/97 20/142 17/101
