# Blender MTL File: 'None'
# Material Count: 1

newmtl Material.001
Ns 96.078431
Ka 0.000000 0.000000 0.000000
Kd 0.800000 0.000000 0.000000
Ks 0.799504 0.788197 0.754277
Ni 1.000000
d 1.000000
illum 2
